24.2,2024-09-18,24.2.3,Eric Engestrom
,2024-10-02,24.2.4,Eric Engestrom
,2024-10-16,24.2.5,Eric Engestrom
,2024-10-30,24.2.6,Eric Engestrom
,2024-11-13,24.2.7,Eric Engestrom
,2024-11-27,24.2.8,Eric Engestrom
